{
    "errors": [
        {
            "message": "Invalid money format",
            "extensions": {
                "code": "BAD_USER_INPUT",
                "debug": "Invalid money format"
            }
        }
    ]
}
