{
    "errors": [
        {
            "message": "Invalid email format",
            "extensions": {
                "code": "BAD_USER_INPUT",
                "debug": "Variable \"$pluto\" got invalid value \"xx\" at \"pluto.email\"; Invalid email format"
            }
        }
    ]
}
